{
  "data": [
    {
      "isChecked": true,
      "name": {
        "first": "Jai",
        "last": "Doe"
      },
      "primaryTimestamp": "3:46:07 PM",
      "title": "Purchase some stocks",
      "datasets": [
        "Google",
        "Apple"
      ],
      "secondaryTimeStamps": {
        "startTime": "3:46:06 PM",
        "durationInSeconds": "60",
        "endTime": "3:07:06 PM"
      },
      "isAuthorized": true,
      "id": 6
    }
  ]
}